﻿;language:;German;
;corpus:;German Web 2013;
;noun;frequence;
1;Jahr;75914;1
2;Mensch;44655;0,58823142
3;Zeit;35575;0,468622388
4;Kind;34420;0,453407804
5;Tag;30458;0,401217167
6;Leben;25061;0,330123561
7;Deutschland;24972;0,328951182
8;Seite;24356;0,320836736
9;Thema;23761;0,31299892
10;Frage;23570;0,310482915
11;Information;20477;0,269739442
12;Unternehmen;19592;0,258081513
13;Frau;19566;0,25773902
14;Fall;18771;0,247266644
15;Möglichkeit;18534;0,24414469
16;Arbeit;18434;0,24282741
17;Welt;18063;0,237940301
18;Uhr;17780;0,234212398
19;Bereich;17365;0,228745686
20;Kunde;17329;0,228271465
21;Weg;17145;0,22584767
22;Stadt;17014;0,224122033
23;Land;16996;0,223884922
24;Teil;16291;0,214598098
25;Bild;16152;0,212767079
26;Projekt;15716;0,207023737
27;Angebot;15274;0,201201359
28;Haus;14985;0,19739442
29;Beispiel;14636;0,192797113
30;Buch;14613;0,192494138
31;Euro;14606;0,192401928
32;Ziel;14292;0,188265669
33;Kirche;14035;0,184880259
34;Datum;14015;0,184616803
35;Woche;13548;0,178465105
36;Art;13443;0,177081961
37;Ende;13328;0,175567089
38;Person;13295;0,175132387
39;Grund;13098;0,172537345
40;Berlin;12761;0,168098111
41;Problem;12707;0,16738678
42;Gott;12698;0,167268225
43;Internet;12693;0,167202361
44;Ort;12386;0,163158311
45;Inhalt;12306;0,162104487
46;Produkt;12225;0,16103749
47;Geschichte;11859;0,156216245
48;Entwicklung;11804;0,155491741
49;Familie;11793;0,15534684
50;Mitglied;11720;0,154385225
51;Monat;11497;0,151447691
52;Rahmen;11171;0,147153358
53;Form;11128;0,146586927
54;Dr;11115;0,146415681
55;Name;11110;0,146349817
56;Erfahrung;11102;0,146244434
57;Schule;10922;0,14387333
58;Mann;10905;0,143649393
59;Artikel;10812;0,142424322
60;Preis;10751;0,141620781
61;Verfügung;10546;0,138920357
62;Beitrag;10234;0,134810443
63;Programm;10227;0,134718234
64;Wort;10072;0,13267645
65;Herr;9680;0,127512712
66;Gruppe;9606;0,126537924
67;Aufgabe;9290;0,122375319
68;Recht;9287;0,122335801
69;Ergebnis;9246;0,121795716
70;Prozent;9123;0,120175462
71;Platz;9047;0,119174329
72;Sinn;9029;0,118937218
73;Hilfe;9016;0,118765972
74;Veranstaltung;9012;0,118713281
75;Gesellschaft;8970;0,118160023
76;Mitarbeiter;8943;0,117804358
77;Jugendliche;8941;0,117778012
78;Gemeinde;8925;0,117567247
79;Text;8856;0,116658324
80;Geld;8822;0,116210449
81;Idee;8791;0,115802092
82;Raum;8786;0,115736228
83;Stunde;8694;0,11452433
84;Hand;8441;0,111191612
85;Juni;8273;0,108978581
86;Website;8153;0,107397845
87;Stelle;8116;0,106910451
88;Mai;8115;0,106897278
89;Spiel;8043;0,105948837
90;Wasser;7957;0,104815976
91;Regel;7826;0,103090339
92;Zukunft;7752;0,102115552
93;Weise;7667;0,100995864
94;Leistung;7660;0,100903654
95;Eltern;7634;0,100561161
96;Foto;7586;0,099928867
97;Interesse;7568;0,099691756
98;Blick;7540;0,099322918
99;Kosten;7472;0,098427168
100;Verein;7412;0,0976368
101;Mal;7374;0,097136233
102;Freund;7291;0,096042891
103;Region;7239;0,095357905
104;Erfolg;7231;0,095252523
105;Film;7214;0,095028585
106;Liebe;7136;0,094001107
107;Europa;7032;0,092631135
108;Hotel;6982;0,091972495
109;System;6974;0,091867113
110;Gast;6957;0,091643175
111;Kontakt;6954;0,091603657
112;Google;6861;0,090378586
113;Wert;6859;0,090352241
114;Schüler;6834;0,090022921
115;Einsatz;6821;0,089851674
116;GmbH;6801;0,089588218
117;Anfang;6730;0,088652949
118;Webseite;6719;0,088508049
119;Bedeutung;6534;0,08607108
120;Minute;6528;0,085992044
121;Wunsch;6507;0,085715415
122;Punkt;6464;0,085148984
123;Jahrhundert;6439;0,084819664
124;Kraft;6436;0,084780146
125;Lösung;6408;0,084411308
126;Unterstützung;6400;0,084305925
127;Anspruch;6392;0,084200543
128;Körper;6385;0,084108333
129;Qualität;6374;0,083963432
130;Herz;6365;0,083844877
131;April;6362;0,083805359
132;Schritt;6346;0,083594594
133;Universität;6336;0,083462866
134;Million;6333;0,083423347
135;Teilnehmer;6306;0,083067682
136;Energie;6305;0,083054509
137;Besucher;6289;0,082843744
138;Partner;6279;0,082712016
139;Medium;6211;0,081816266
140;Team;6210;0,081803093
141;Entscheidung;6170;0,081276181
142;Natur;6091;0,08023553
143;Musik;6021;0,079313434
144;März;5994;0,078957768
145;Rolle;5964;0,078562584
146;Ausbildung;5881;0,077469242
147;September;5860;0,077192613
148;Antwort;5834;0,07685012
149;Sache;5807;0,076494454
150;Hinweis;5792;0,076296862
151;Situation;5775;0,076072925
152;München;5774;0,076059752
153;Zahl;5753;0,075783123
154;Vorteil;5747;0,075704086
155;Auge;5717;0,075308902
156;Firma;5713;0,075256211
157;Leute;5682;0,074847854
158;E-Mail;5671;0,074702953
159;Sprache;5663;0,074597571
160;Straße;5639;0,074281424
161;Nutzung;5626;0,074110177
162;Markt;5610;0,073899412
163;Folge;5580;0,073504228
164;Einrichtung;5563;0,073280291
165;Grundlage;5537;0,072937798
166;Gespräch;5523;0,072753379
167;Funktion;5517;0,072674342
168;Suche;5482;0,072213294
169;Staat;5451;0,071804937
170;Zusammenarbeit;5440;0,071660036
171;Organisation;5430;0,071528308
172;Oktober;5408;0,071238507
173;Autor;5395;0,07106726
174;Spaß;5362;0,070632558
175;Höhe;5361;0,070619385
176;Kultur;5351;0,070487657
177;Farbe;5346;0,070421793
178;Schweiz;5314;0,070000263
179;Hamburg;5312;0,069973918
180;Tier;5310;0,069947572
181;Werk;5308;0,069921227
182;Arzt;5280;0,069552388
183;Maßnahme;5241;0,069038649
184;Lage;5233;0,068933267
185;Reise;5232;0,068920094
186;November;5213;0,068669811
187;Auswahl;5209;0,068617119
188;Zusammenhang;5202;0,06852491
189;Kommentar;5202;0,06852491
190;Wahl;5182;0,068261454
191;Glaube;5177;0,06819559
192;Studie;5170;0,06810338
193;Nutzer;5165;0,068037516
194;Geist;5157;0,067932134
195;Beratung;5133;0,067615987
196;Begriff;5128;0,067550123
197;Sicherheit;5123;0,067484259
198;Richtung;5112;0,067339358
199;Chance;5106;0,067260321
200;Wissen;5083;0,066957346
